[
    {"pk": 1, "model": "socnet.network", "fields": {"name": "Twitter",
                                                    "category": 2,
                                                    "homepage": "https://twitter.com/",
                                                    "url": "https://twitter.com/%s"}
    }
]
